…
# Merge the data and the titles dataframes
cpi_doc <- left_join(cpi_data, cpi_names,
                     by = c("symbol" = "series_id")) 

# Use the lag function to get the 12 month change in prices for each component ...
cpi_change <- cpi_doc %>%
  group_by(title) %>% 
  mutate(year_change = price/lag(price, 12, na.rm = TRUE) - 1,
            date) %>% 
  na.omit()

cpi_change

## # A tibble: 12,165 × 10
## # Groups:   title [49]
##    symbol         date       price title vintage_date units freq  seas_adj updated
##    <chr>          <date>     <dbl> <chr> <chr>        <chr> <chr> <chr>    <chr>  
##  1 CUSR0000SETG01 2001-01-01  239  Cons… Current      Inde… M     SA       2021-1…
##  2 CUSR0000SETG01 2001-02-01  242  Cons… Current      Inde… M     SA       2021-1…
##  3 CUSR0000SETG01 2001-03-01  239. Cons… Current      Inde… M     SA       2021-1…
##  4 CUSR0000SETG01 2001-04-01  236. Cons… Current      Inde… M     SA       2021-1…
##  5 CUSR0000SETG01 2001-05-01  238. Cons… Current      Inde… M     SA       2021-1…
##  6 CUSR0000SETG01 2001-06-01  249. Cons… Current      Inde… M     SA       2021-1…
##  7 CUSR0000SETG01 2001-07-01  249. Cons… Current      Inde… M     SA       2021-1…
##  8 CUSR0000SETG01 2001-08-01  244. Cons… Current      Inde… M     SA       2021-1…
##  9 CUSR0000SETG01 2001-09-01  242. Cons… Current      Inde… M     SA       2021-1…
## 10 CUSR0000SETG01 2001-10-01  236. Cons… Current      Inde… M     SA       2021-1…
## # … with 12,155 more rows, and 1 more variable: year_change <dbl>
# ... and make sure that "All Items" appears first in the dataframe
# Additionally, we clean the titles
cpi_change <- cpi_change %>% 
  mutate(index = symbol == "CPIAUCSL") %>%
  mutate(title = str_remove_all(title, "Consumer Price Index for All Urban Consumers: ")) %>%
  mutate(title = str_remove_all(title, " in U.S. City Average"))

# Next, we order the components within each month based on their impact on the annual CPI change for that month and create a new dataframe
cpi_ordered <- cpi_change %>%
    group_by(date) %>%
  arrange(desc(index), date, desc(year_change))

cpi_ordered 

## # A tibble: 12,165 × 11
## # Groups:   date [249]
##    symbol   date       price title     vintage_date units freq  seas_adj updated
##    <chr>    <date>     <dbl> <chr>     <chr>        <chr> <chr> <chr>    <chr>  
##  1 CPIAUCSL 2001-01-01  176. All Items Current      Inde… M     SA       2021-1…
##  2 CPIAUCSL 2001-02-01  176  All Items Current      Inde… M     SA       2021-1…
##  3 CPIAUCSL 2001-03-01  176. All Items Current      Inde… M     SA       2021-1…
##  4 CPIAUCSL 2001-04-01  176. All Items Current      Inde… M     SA       2021-1…
##  5 CPIAUCSL 2001-05-01  177. All Items Current      Inde… M     SA       2021-1…
##  6 CPIAUCSL 2001-06-01  178. All Items Current      Inde… M     SA       2021-1…
##  7 CPIAUCSL 2001-07-01  177. All Items Current      Inde… M     SA       2021-1…
##  8 CPIAUCSL 2001-08-01  177. All Items Current      Inde… M     SA       2021-1…
##  9 CPIAUCSL 2001-09-01  178. All Items Current      Inde… M     SA       2021-1…
## 10 CPIAUCSL 2001-10-01  178. All Items Current      Inde… M     SA       2021-1…
## # … with 12,155 more rows, and 2 more variables: year_change <dbl>, index <lgl>
…
